25,26,27,28,29,30,31,32
500,500,500,500,500,400,400,400
500,500,500,500,400,400,400,400
500,500,500,400,400,400,400,400
500,500,400,400,400,400,400,350
500,400,400,400,400,400,350,350
400,400,400,400,400,350,350,300
400,400,400,400,350,350,300,300
400,400,400,350,350,300,300,300
400,400,350,350,300,300,300,250
400,350,350,300,300,300,250,250
350,350,300,300,300,250,250,250
350,300,300,300,250,250,250,200
300,300,300,250,250,250,200,200
300,300,250,250,250,200,200,200
300,250,250,250,200,200,200,200
250,250,250,200,200,200,200,150
250,250,200,200,200,200,150,150
250,200,200,200,200,150,150,150
200,200,200,200,150,150,150,150
200,200,200,150,150,150,150,150
